year,duration_avg,stddev_avg
1922,222.2362816666667,22.594308289056702
1924,186.169016,11.417650278127715
1925,185.58461857142856,15.275662343757181
1926,185.90889210526316,20.357098972785224
1927,183.89672790697676,39.55489534455451
1928,186.52739538461532,33.3773468651543
1929,189.89317774193552,27.422346360908605
1930,189.85162774999998,18.058442718351778
1931,197.75842742857145,45.62916556813019
1932,188.6796209090909,9.056871728294997
1933,179.55655333333334,17.65602944433506
1934,184.01688724137932,14.05943732432695
1935,185.03791375000003,24.528681707050243
1936,186.7478892,19.337471936504933
1937,181.44327785714285,25.038949528711875
1938,166.92611947368422,14.074031851412443
1939,191.36962257142855,48.09310925365512
1940,170.82127384615382,29.733802975448413
1941,177.64689281249997,18.18013094057715
1942,177.11192791666667,17.25721457920035
1943,166.30251999999996,14.224669539181674
1944,161.76716333333334,12.449704903215101
1945,175.37870333333336,24.29063559402568
1946,171.85643517241377,18.30776636131189
1947,172.04703596491225,45.93861566509315
1948,186.80603930232556,61.4154326642569
1949,177.53119266666675,48.42949749640093
1950,175.419565952381,50.865925322750485
1951,189.00817310810808,52.719409394707675
1952,166.7774731168831,26.715370665693136
1953,174.61201285714284,59.67267174621321
1954,199.94268211382112,89.48174122469665
1955,185.0464153818182,71.62782039311305
1956,198.0289314159291,112.00796858098563
1957,212.33111170568557,123.41915325343152
1958,179.88751234991412,91.05372977943614
1959,188.5921554391893,112.5584032247857
1960,191.9402165801887,103.69376629053549
1961,211.59156606643356,145.60977841912606
1962,209.5773640661157,143.43664690775603
1963,180.31308110864748,79.51237315402874
1964,196.92264682539667,121.27015673796218
1965,204.97116186607138,120.54063096609435
1966,185.94828222948428,87.26994111223173
1967,196.33635965075675,104.44230157400551
1968,209.9114733476164,112.96005299888347
1969,229.14220721845322,126.06284593387952
1970,245.2246476382979,145.898072873214
1971,245.59519935241656,121.98072919785415
1972,249.7269391302448,145.95671451415794
1973,250.9796792372882,130.53546301123026
1974,248.2748299908508,115.01387863241928
1975,258.2748971676068,123.00220941916163
1976,255.10848195043604,118.7323813243364
1977,250.99925862909657,127.95223491062242
1978,245.4107501982229,116.11292993264537
1979,245.4058679311456,119.13842325671602
1980,237.4375879780717,99.60183806263126
1981,238.901228310704,105.24219412890434
1982,232.92932395607457,95.8642632494754
1983,239.75413748966326,103.55982294694523
1984,243.27543189133016,95.6439080278948
1985,250.00972298211295,105.2961294196955
1986,244.71989363270134,111.79837279617641
1987,237.88305477073172,101.0455245554708
1988,242.14960836807415,98.38973431515781
1989,241.54657340227809,108.89312598298717
1990,240.88123135023446,112.17321583406707
1991,242.51786532023124,105.38044788495961
1992,245.00212516392594,109.6096073778448
1993,246.61140532149298,113.30603543660882
1994,246.56816199719623,114.40173815756307
1995,250.44964826319753,117.62273110852155
1996,247.59096758118136,119.75064020193187
1997,252.23722730009226,121.86253994317123
1998,252.05911886681787,125.07447677226843
1999,251.08285731245212,115.72199752019033
2000,251.4157295236615,119.00759658949204
2001,254.4211577110719,124.90195689749135
2002,249.59224630964542,117.15353022958011
2003,246.78189993281984,117.38499200974272
2004,248.3068751039907,115.90130632408317
2005,245.18002133524024,113.20646630166007
2006,247.90531512491344,113.83856171298235
2007,249.69939469985272,112.81229269356301
2008,250.9128376445211,114.75783638742493
2009,249.94171984026286,115.7272263954937
2010,250.41501357454504,100.25746428187374
2011,185.05098,0.0
