year,genre,count
1922,Reggae,12
1926,Blues,12
1927,Blues,9
1927,Jazz,3
1927,Vocal,3
1928,Blues,18
1929,Blues,30
1930,Blues,6
1930,Jazz,12
1931,Blues,27
1932,Blues,3
1934,Blues,3
1934,Country,3
1934,Jazz,3
1935,Blues,9
1936,Country,3
1936,Vocal,9
1937,Blues,18
1937,Vocal,3
1938,Blues,6
1939,Blues,3
1939,Jazz,3
1939,Vocal,6
1940,Blues,54
1940,Folk,3
1941,Blues,6
1941,Jazz,3
1941,Vocal,6
1942,Country,3
1942,International,3
1942,Vocal,3
1943,Latin,6
1944,Country,3
1945,Blues,3
1945,Country,3
1945,Vocal,9
1946,Jazz,3
1946,Vocal,3
1947,Blues,6
1947,Country,27
1947,Vocal,3
1948,Country,6
1948,Easy_Listening,3
1948,Jazz,3
1948,Pop_Rock,3
1948,Vocal,3
1949,Blues,15
1949,Easy_Listening,3
1949,Jazz,3
1949,Pop_Rock,3
1950,Blues,15
1950,Country,3
1950,Jazz,9
1950,RnB,6
1950,Vocal,3
1951,Blues,6
1951,Country,3
1951,Folk,6
1951,Jazz,12
1951,RnB,3
1951,Vocal,12
1952,Blues,24
1952,Country,6
1952,Vocal,9
1953,Blues,30
1953,Comedy_Spoken,39
1953,Vocal,18
1954,Blues,6
1954,Easy_Listening,3
1954,Jazz,21
1954,Pop_Rock,6
1954,Vocal,30
1955,Blues,21
1955,Country,9
1955,Easy_Listening,30
1955,Jazz,27
1955,Latin,3
1955,Pop_Rock,9
1955,Religious,3
1955,RnB,6
1955,Vocal,99
1956,Blues,33
1956,Children,12
1956,Classical,3
1956,Country,51
1956,Easy_Listening,93
1956,Folk,6
1956,Jazz,108
1956,Latin,3
1956,Pop_Rock,21
1956,RnB,6
1956,Vocal,102
1957,Blues,30
1957,Country,24
1957,Easy_Listening,21
1957,Folk,36
1957,Holiday,12
1957,Jazz,162
1957,Pop_Rock,54
1957,RnB,24
1957,Vocal,114
1958,Blues,24
1958,Comedy_Spoken,3
1958,Country,21
1958,Easy_Listening,48
1958,Folk,3
1958,International,6
1958,Jazz,72
1958,Latin,3
1958,Pop_Rock,48
1958,RnB,24
1958,Vocal,48
1959,Blues,12
1959,Comedy_Spoken,51
1959,Country,87
1959,Easy_Listening,12
1959,Folk,6
1959,Jazz,51
1959,Pop_Rock,57
1959,RnB,48
1959,Vocal,57
1960,Blues,75
1960,Comedy_Spoken,3
1960,Country,57
1960,Easy_Listening,3
1960,Folk,18
1960,Jazz,21
1960,Pop_Rock,57
1960,Reggae,3
1960,RnB,48
1960,Vocal,18
1961,Blues,30
1961,Comedy_Spoken,27
1961,Country,102
1961,Easy_Listening,3
1961,Folk,36
1961,Jazz,138
1961,Pop_Rock,135
1961,Religious,3
1961,RnB,99
1961,Vocal,36
1962,Blues,72
1962,Country,45
1962,Folk,15
1962,International,6
1962,Jazz,81
1962,Latin,33
1962,Pop_Rock,57
1962,Religious,3
1962,RnB,66
1962,Vocal,39
1963,Blues,21
1963,Comedy_Spoken,3
1963,Country,63
1963,Easy_Listening,6
1963,Folk,42
1963,Jazz,150
1963,Latin,33
1963,Pop_Rock,162
1963,RnB,99
1963,Stage,3
1963,Vocal,33
1964,Blues,87
1964,Comedy_Spoken,21
1964,Country,27
1964,Easy_Listening,33
1964,Folk,69
1964,Jazz,192
1964,Latin,3
1964,Pop_Rock,294
1964,RnB,81
1964,Vocal,75
1965,Blues,69
1965,Comedy_Spoken,9
1965,Country,42
1965,Easy_Listening,6
1965,Folk,57
1965,Holiday,18
1965,Jazz,276
1965,Latin,39
1965,Pop_Rock,237
1965,Reggae,18
1965,RnB,159
1965,Vocal,18
1966,Blues,123
1966,Comedy_Spoken,3
1966,Country,39
1966,Easy_Listening,21
1966,Folk,111
1966,International,12
1966,Jazz,159
1966,Latin,24
1966,Pop_Rock,447
1966,RnB,285
1966,Stage,12
1966,Vocal,51
1967,Blues,96
1967,Comedy_Spoken,51
1967,Country,75
1967,Easy_Listening,21
1967,Folk,183
1967,International,15
1967,Jazz,78
1967,Latin,51
1967,Pop_Rock,906
1967,Reggae,24
1967,RnB,321
1967,Stage,3
1967,Vocal,33
1968,Blues,99
1968,Comedy_Spoken,48
1968,Country,150
1968,Easy_Listening,12
1968,Folk,117
1968,International,24
1968,Jazz,114
1968,Latin,90
1968,Pop_Rock,1320
1968,Reggae,6
1968,Religious,3
1968,RnB,258
1968,Stage,6
1968,Vocal,9
1969,Blues,132
1969,Comedy_Spoken,12
1969,Country,111
1969,Easy_Listening,9
1969,Folk,81
1969,International,12
1969,Jazz,189
1969,Latin,69
1969,Pop_Rock,1716
1969,Reggae,42
1969,RnB,342
1969,Vocal,24
1970,Blues,111
1970,Country,108
1970,Easy_Listening,3
1970,Folk,129
1970,International,30
1970,Jazz,171
1970,Latin,18
1970,Pop_Rock,2016
1970,Reggae,75
1970,Religious,45
1970,RnB,318
1970,Vocal,15
1971,Blues,45
1971,Country,66
1971,Easy_Listening,12
1971,Electronic,6
1971,Folk,258
1971,International,78
1971,Jazz,171
1971,Latin,129
1971,Pop_Rock,1962
1971,RnB,291
1971,Vocal,6
1972,Blues,108
1972,Country,93
1972,Easy_Listening,6
1972,Folk,102
1972,International,39
1972,Jazz,135
1972,Latin,81
1972,Pop_Rock,1728
1972,Reggae,39
1972,Religious,36
1972,RnB,357
1972,Vocal,21
1973,Blues,30
1973,Country,75
1973,Easy_Listening,6
1973,Electronic,15
1973,Folk,108
1973,International,84
1973,Jazz,216
1973,Latin,108
1973,New Age,3
1973,Pop_Rock,2265
1973,Reggae,3
1973,Religious,3
1973,RnB,402
1973,Stage,3
1973,Vocal,102
1974,Blues,39
1974,Country,126
1974,Easy_Listening,9
1974,Electronic,15
1974,Folk,24
1974,International,51
1974,Jazz,192
1974,Latin,78
1974,New Age,3
1974,Pop_Rock,1938
1974,Reggae,54
1974,Religious,3
1974,RnB,402
1974,Stage,3
1974,Vocal,33
1975,Blues,12
1975,Country,147
1975,Easy_Listening,3
1975,Electronic,24
1975,Folk,45
1975,Jazz,372
1975,Latin,93
1975,Pop_Rock,1785
1975,Reggae,99
1975,RnB,405
1975,Stage,6
1975,Vocal,33
1976,Country,84
1976,Electronic,51
1976,Folk,42
1976,Holiday,6
1976,International,21
1976,Jazz,222
1976,Latin,108
1976,New Age,3
1976,Pop_Rock,1749
1976,Reggae,162
1976,Religious,45
1976,RnB,429
1976,Stage,6
1976,Vocal,21
1977,Avant_Garde,24
1977,Children,3
1977,Country,87
1977,Easy_Listening,3
1977,Electronic,72
1977,Folk,39
1977,International,63
1977,Jazz,267
1977,Latin,120
1977,Pop_Rock,2307
1977,Reggae,165
1977,Religious,3
1977,RnB,345
1977,Stage,3
1977,Vocal,12
1978,Avant_Garde,9
1978,Blues,18
1978,Classical,39
1978,Country,72
1978,Easy_Listening,3
1978,Electronic,33
1978,Folk,27
1978,International,66
1978,Jazz,204
1978,Latin,63
1978,New Age,6
1978,Pop_Rock,2940
1978,Reggae,162
1978,Religious,21
1978,RnB,450
1978,Stage,3
1978,Vocal,87
1979,Comedy_Spoken,3
1979,Country,96
1979,Easy_Listening,27
1979,Electronic,102
1979,Folk,87
1979,International,93
1979,Jazz,129
1979,Latin,51
1979,New Age,6
1979,Pop_Rock,2886
1979,Rap,6
1979,Reggae,204
1979,RnB,294
1979,Stage,18
1979,Vocal,30
1980,Avant_Garde,18
1980,Blues,39
1980,Country,57
1980,Easy_Listening,15
1980,Electronic,54
1980,Folk,99
1980,International,60
1980,Jazz,138
1980,Latin,141
1980,New Age,42
1980,Pop_Rock,3084
1980,Rap,24
1980,Reggae,144
1980,Religious,3
1980,RnB,348
1980,Stage,12
1980,Vocal,15
1981,Avant_Garde,39
1981,Blues,12
1981,Country,108
1981,Electronic,48
1981,Folk,60
1981,International,21
1981,Jazz,87
1981,Latin,105
1981,New Age,42
1981,Pop_Rock,3210
1981,Rap,3
1981,Reggae,204
1981,Religious,63
1981,RnB,303
1981,Stage,3
1981,Vocal,15
1982,Avant_Garde,12
1982,Blues,57
1982,Comedy_Spoken,24
1982,Country,51
1982,Easy_Listening,30
1982,Electronic,6
1982,Folk,63
1982,International,18
1982,Jazz,168
1982,Latin,48
1982,New Age,6
1982,Pop_Rock,3933
1982,Rap,18
1982,Reggae,246
1982,Religious,39
1982,RnB,312
1982,Stage,60
1982,Vocal,48
1983,Blues,9
1983,Comedy_Spoken,30
1983,Country,54
1983,Easy_Listening,15
1983,Electronic,33
1983,Folk,51
1983,International,120
1983,Jazz,222
1983,Latin,81
1983,New Age,69
1983,Pop_Rock,3549
1983,Rap,6
1983,Reggae,66
1983,Religious,87
1983,RnB,243
1983,Stage,21
1983,Vocal,33
1984,Blues,3
1984,Comedy_Spoken,66
1984,Country,108
1984,Electronic,117
1984,Folk,33
1984,International,147
1984,Jazz,81
1984,Latin,114
1984,New Age,60
1984,Pop_Rock,3918
1984,Rap,6
1984,Reggae,147
1984,Religious,54
1984,RnB,282
1984,Vocal,48
1985,Blues,27
1985,Children,18
1985,Classical,9
1985,Comedy_Spoken,72
1985,Country,99
1985,Easy_Listening,3
1985,Electronic,75
1985,Folk,69
1985,International,120
1985,Jazz,303
1985,Latin,183
1985,New Age,54
1985,Pop_Rock,3945
1985,Rap,39
1985,Reggae,69
1985,Religious,75
1985,RnB,249
1985,Stage,12
1985,Vocal,39
1986,Avant_Garde,27
1986,Blues,36
1986,Classical,3
1986,Comedy_Spoken,51
1986,Country,72
1986,Easy_Listening,18
1986,Electronic,48
1986,Folk,54
1986,International,66
1986,Jazz,339
1986,Latin,156
1986,New Age,72
1986,Pop_Rock,4518
1986,Rap,3
1986,Reggae,93
1986,Religious,9
1986,RnB,300
1986,Stage,51
1986,Vocal,45
1987,Avant_Garde,12
1987,Blues,51
1987,Country,138
1987,Electronic,120
1987,Folk,15
1987,Holiday,3
1987,International,123
1987,Jazz,246
1987,Latin,183
1987,New Age,105
1987,Pop_Rock,5058
1987,Rap,114
1987,Reggae,165
1987,Religious,105
1987,RnB,213
1987,Vocal,153
1988,Avant_Garde,30
1988,Blues,54
1988,Children,3
1988,Classical,3
1988,Comedy_Spoken,12
1988,Country,207
1988,Easy_Listening,36
1988,Electronic,210
1988,Folk,111
1988,International,183
1988,Jazz,537
1988,Latin,192
1988,New Age,207
1988,Pop_Rock,4845
1988,Rap,315
1988,Reggae,84
1988,Religious,129
1988,RnB,504
1988,Stage,36
1988,Vocal,132
1989,Avant_Garde,51
1989,Blues,237
1989,Comedy_Spoken,45
1989,Country,285
1989,Easy_Listening,75
1989,Electronic,201
1989,Folk,90
1989,Holiday,3
1989,International,219
1989,Jazz,453
1989,Latin,264
1989,New Age,120
1989,Pop_Rock,6381
1989,Rap,249
1989,Reggae,30
1989,Religious,63
1989,RnB,555
1989,Stage,6
1989,Vocal,216
1990,Avant_Garde,15
1990,Blues,252
1990,Classical,9
1990,Comedy_Spoken,141
1990,Country,336
1990,Easy_Listening,84
1990,Electronic,342
1990,Folk,165
1990,International,192
1990,Jazz,555
1990,Latin,258
1990,New Age,123
1990,Pop_Rock,6453
1990,Rap,207
1990,Reggae,114
1990,Religious,129
1990,RnB,579
1990,Stage,54
1990,Vocal,189
1991,Avant_Garde,21
1991,Blues,297
1991,Children,36
1991,Classical,69
1991,Comedy_Spoken,84
1991,Country,597
1991,Easy_Listening,36
1991,Electronic,543
1991,Folk,132
1991,International,249
1991,Jazz,618
1991,Latin,453
1991,New Age,174
1991,Pop_Rock,7302
1991,Rap,309
1991,Reggae,165
1991,Religious,384
1991,RnB,633
1991,Stage,54
1991,Vocal,228
1992,Avant_Garde,6
1992,Blues,180
1992,Classical,6
1992,Comedy_Spoken,60
1992,Country,480
1992,Easy_Listening,72
1992,Electronic,531
1992,Folk,378
1992,International,291
1992,Jazz,828
1992,Latin,498
1992,New Age,219
1992,Pop_Rock,8382
1992,Rap,525
1992,Reggae,195
1992,Religious,210
1992,RnB,402
1992,Stage,78
1992,Vocal,207
1993,Avant_Garde,45
1993,Blues,279
1993,Children,12
1993,Classical,15
1993,Comedy_Spoken,27
1993,Country,603
1993,Easy_Listening,6
1993,Electronic,1092
1993,Folk,138
1993,International,621
1993,Jazz,687
1993,Latin,411
1993,New Age,375
1993,Pop_Rock,9309
1993,Rap,867
1993,Reggae,198
1993,Religious,483
1993,RnB,702
1993,Stage,108
1993,Vocal,201
1994,Avant_Garde,66
1994,Blues,393
1994,Children,3
1994,Classical,9
1994,Comedy_Spoken,3
1994,Country,552
1994,Easy_Listening,36
1994,Electronic,1425
1994,Folk,231
1994,International,426
1994,Jazz,795
1994,Latin,846
1994,New Age,246
1994,Pop_Rock,11265
1994,Rap,645
1994,Reggae,486
1994,Religious,363
1994,RnB,615
1994,Stage,9
1994,Vocal,225
1995,Avant_Garde,9
1995,Blues,351
1995,Children,24
1995,Classical,45
1995,Comedy_Spoken,138
1995,Country,555
1995,Easy_Listening,57
1995,Electronic,2130
1995,Folk,312
1995,Holiday,3
1995,International,492
1995,Jazz,885
1995,Latin,732
1995,New Age,240
1995,Pop_Rock,12384
1995,Rap,645
1995,Reggae,255
1995,Religious,369
1995,RnB,405
1995,Stage,66
1995,Vocal,243
1996,Avant_Garde,117
1996,Blues,297
1996,Comedy_Spoken,111
1996,Country,555
1996,Easy_Listening,75
1996,Electronic,2076
1996,Folk,285
1996,Holiday,42
1996,International,864
1996,Jazz,843
1996,Latin,762
1996,New Age,345
1996,Pop_Rock,12591
1996,Rap,1059
1996,Reggae,351
1996,Religious,414
1996,RnB,735
1996,Stage,87
1996,Vocal,384
1997,Avant_Garde,18
1997,Blues,402
1997,Classical,69
1997,Comedy_Spoken,81
1997,Country,471
1997,Easy_Listening,57
1997,Electronic,2706
1997,Folk,261
1997,Holiday,3
1997,International,618
1997,Jazz,1086
1997,Latin,858
1997,New Age,237
1997,Pop_Rock,13776
1997,Rap,816
1997,Reggae,375
1997,Religious,411
1997,RnB,636
1997,Stage,159
1997,Vocal,348
1998,Avant_Garde,72
1998,Blues,330
1998,Classical,9
1998,Comedy_Spoken,183
1998,Country,654
1998,Easy_Listening,27
1998,Electronic,2811
1998,Folk,363
1998,Holiday,3
1998,International,642
1998,Jazz,1014
1998,Latin,1098
1998,New Age,336
1998,Pop_Rock,14274
1998,Rap,798
1998,Reggae,318
1998,Religious,297
1998,RnB,723
1998,Stage,183
1998,Vocal,213
1999,Avant_Garde,18
1999,Blues,315
1999,Children,3
1999,Classical,9
1999,Comedy_Spoken,141
1999,Country,741
1999,Easy_Listening,45
1999,Electronic,2766
1999,Folk,279
1999,Holiday,3
1999,International,894
1999,Jazz,1134
1999,Latin,1347
1999,New Age,501
1999,Pop_Rock,16698
1999,Rap,1434
1999,Reggae,279
1999,Religious,498
1999,RnB,471
1999,Stage,75
1999,Vocal,393
2000,Avant_Garde,123
2000,Blues,312
2000,Classical,39
2000,Comedy_Spoken,285
2000,Country,876
2000,Easy_Listening,18
2000,Electronic,3309
2000,Folk,435
2000,International,1005
2000,Jazz,1203
2000,Latin,1356
2000,New Age,381
2000,Pop_Rock,17634
2000,Rap,1422
2000,Reggae,357
2000,Religious,372
2000,RnB,831
2000,Stage,219
2000,Vocal,276
2001,Avant_Garde,57
2001,Blues,306
2001,Children,69
2001,Classical,45
2001,Comedy_Spoken,120
2001,Country,861
2001,Easy_Listening,12
2001,Electronic,4140
2001,Folk,501
2001,Holiday,6
2001,International,921
2001,Jazz,1230
2001,Latin,1479
2001,New Age,381
2001,Pop_Rock,20847
2001,Rap,1515
2001,Reggae,450
2001,Religious,540
2001,RnB,1068
2001,Stage,60
2001,Vocal,501
2002,Avant_Garde,126
2002,Blues,237
2002,Classical,39
2002,Comedy_Spoken,156
2002,Country,1080
2002,Easy_Listening,12
2002,Electronic,5091
2002,Folk,294
2002,Holiday,36
2002,International,840
2002,Jazz,1326
2002,Latin,1308
2002,New Age,210
2002,Pop_Rock,23790
2002,Rap,1746
2002,Reggae,513
2002,Religious,525
2002,RnB,1212
2002,Stage,132
2002,Vocal,495
2003,Avant_Garde,147
2003,Blues,387
2003,Children,3
2003,Classical,36
2003,Comedy_Spoken,261
2003,Country,897
2003,Easy_Listening,24
2003,Electronic,5196
2003,Folk,480
2003,Holiday,33
2003,International,1392
2003,Jazz,1329
2003,Latin,1326
2003,New Age,393
2003,Pop_Rock,28161
2003,Rap,2886
2003,Reggae,516
2003,Religious,789
2003,RnB,1134
2003,Stage,153
2003,Vocal,474
2004,Avant_Garde,129
2004,Blues,471
2004,Children,12
2004,Classical,33
2004,Comedy_Spoken,225
2004,Country,942
2004,Easy_Listening,45
2004,Electronic,5388
2004,Folk,525
2004,Holiday,6
2004,International,1089
2004,Jazz,1233
2004,Latin,1560
2004,New Age,285
2004,Pop_Rock,30600
2004,Rap,2427
2004,Reggae,414
2004,Religious,582
2004,RnB,1272
2004,Stage,12
2004,Vocal,489
2005,Avant_Garde,51
2005,Blues,558
2005,Children,3
2005,Classical,111
2005,Comedy_Spoken,264
2005,Country,1365
2005,Easy_Listening,120
2005,Electronic,6015
2005,Folk,417
2005,Holiday,54
2005,International,1467
2005,Jazz,1434
2005,Latin,1797
2005,New Age,279
2005,Pop_Rock,36546
2005,Rap,3411
2005,Reggae,684
2005,Religious,789
2005,RnB,1380
2005,Stage,111
2005,Vocal,477
2006,Avant_Garde,114
2006,Blues,336
2006,Children,24
2006,Classical,27
2006,Comedy_Spoken,381
2006,Country,1188
2006,Easy_Listening,111
2006,Electronic,7131
2006,Folk,582
2006,International,1419
2006,Jazz,1371
2006,Latin,1845
2006,New Age,333
2006,Pop_Rock,40146
2006,Rap,3606
2006,Reggae,753
2006,Religious,891
2006,RnB,1515
2006,Stage,177
2006,Vocal,534
2007,Avant_Garde,150
2007,Blues,384
2007,Children,18
2007,Classical,36
2007,Comedy_Spoken,291
2007,Country,1287
2007,Easy_Listening,63
2007,Electronic,6696
2007,Folk,717
2007,Holiday,15
2007,International,1491
2007,Jazz,1899
2007,Latin,1407
2007,New Age,108
2007,Pop_Rock,44835
2007,Rap,3369
2007,Reggae,885
2007,Religious,654
2007,RnB,1311
2007,Stage,306
2007,Vocal,378
2008,Avant_Garde,21
2008,Blues,288
2008,Children,66
2008,Classical,24
2008,Comedy_Spoken,228
2008,Country,1131
2008,Easy_Listening,81
2008,Electronic,6558
2008,Folk,486
2008,Holiday,36
2008,International,1167
2008,Jazz,1215
2008,Latin,1017
2008,New Age,123
2008,Pop_Rock,39573
2008,Rap,2988
2008,Reggae,654
2008,Religious,999
2008,RnB,1611
2008,Stage,192
2008,Vocal,426
2009,Avant_Garde,102
2009,Blues,408
2009,Children,12
2009,Classical,57
2009,Comedy_Spoken,306
2009,Country,1026
2009,Easy_Listening,12
2009,Electronic,6555
2009,Folk,531
2009,Holiday,84
2009,International,1029
2009,Jazz,981
2009,Latin,684
2009,New Age,186
2009,Pop_Rock,34185
2009,Rap,2709
2009,Reggae,540
2009,Religious,621
2009,RnB,1257
2009,Stage,228
2009,Vocal,117
2010,Avant_Garde,12
2010,Blues,138
2010,Children,12
2010,Classical,18
2010,Comedy_Spoken,81
2010,Country,318
2010,Easy_Listening,6
2010,Electronic,2478
2010,Folk,390
2010,International,402
2010,Jazz,342
2010,Latin,165
2010,New Age,27
2010,Pop_Rock,9678
2010,Rap,594
2010,Reggae,36
2010,Religious,111
2010,RnB,252
2010,Stage,57
2010,Vocal,6
2011,Pop_Rock,3
