when,387
who,146
corazón,1454
fui,425
faz,161
n,162
mortal,69
5,23
hair,2
citi,10
mourn,2
dann,7
parent,1
version,3
‘caus,3
sourir,2
punch,1
steel,1
blanco,158
hacer,857
distancia,107
quisiera,414
llanto,172
til,23
pued,1096
vuelvo,277
horizont,69
tune,15
secret,25
winter,7
prais,11
sleepless,1
pistol,1
worst,1
passer,2
dia,1082
he,1358
uma,397
believ,85
estar,818
hurt,36
bello,65
becaus,32
victim,8
fai,13
dot,2
von,4
mond,5
ima,2
evil,3
voz,637
mira,669
destino,364
wait,114
strada,11
within,9
push,8
california,23
rich,9
zum,19
slow,25
wall,10
drive,23
tant,8
salt,10
pump,3
bust,2
avec,17
coke,1
kept,19
16,3
current,1
parasit,1
fever,33
dim,11
tes,17
play,104
pido,306
vem,262
escuchar,148
envi,2
x3,36
babi,490
reel,4
pode,181
chi,78
space,6
send,65
paper,8
robin,1
thi,7
further,1
queen,2
lung,1
fanci,2
takin,1
you,4192
alma,1204
alegr,94
duda,161
part,338
puerta,315
mess,12
caer,235
clown,13
conceal,2
hey,286
pensando,263
respirar,177
escap,34
letra,57
música,99
social,39
found,31
matter,43
dish,3
rare,5
midnight,1
switch,17
denk,1
thick,2
shot,8
thirst,2
pue,379
pa,1072
com,516
creation,2
rule,4
baila,363
step,38
salvat,1
forgiv,16
piec,8
vagu,2
sugar,15
upsid,1
mission,1
rockin,7
lass,1
está,1327
dar,410
noth,95
sentido,208
carn,99
cambio,143
onli,161
start,38
sake,4
stranger,8
ou,161
stereo,5
pela,133
jaim,8
gli,31
chocol,39
grade,4
harder,3
month,3
fulfil,2
manchmal,1
nous,18
coffin,3
fuss,5
project,1
tortur,2
so,699
simpl,97
otra,1206
camino,597
fine,42
ci,141
miss,93
fr,9
comb,2
sour,1
doo,43
hundr,6
extra,18
et,93
nun,19
main,15
build,14
floor,8
spirit,4
stain,4
determin,1
wieder,5
dreamin,3
jackson,2
fellow,1
my,1133
own,28
plan,75
alegría,128
dor,90
natur,53
cup,2
brand,1
des,126
caminho,52
toujour,10
provid,3
runnin,24
remind,3
romeo,15
endlich,3
sulla,7
vous,2
tus,2330
realidad,248
empti,4
pi,26
muerto,134
alcohol,61
silli,5
cost,1
anyth,31
outta,2
infect,3
bin,4
chase,16
wie,7
oder,2
hur,1
unknown,1
amen,1
peur,1
asleep,2
dice,541
los,4853
distant,48
lento,138
claro,153
muito,119
diz,63
wither,1
spoken,2
parol,15
slave,7
leav,92
someday,17
glori,3
valley,1
taken,8
agoni,2
chicken,3
target,1
ven,803
rip,6
memoria,102
café,86
guerra,217
dart,161
nel,56
burst,8
glad,6
quit,38
worth,11
famili,10
funni,8
aha,39
pray,23
feat,4
rhythm,31
pleur,3
vieux,2
white,13
sink,1
blond,3
forg,1
fatal,47
each,37
vengo,116
break,50
heartbreak,13
along,20
quiet,6
child,8
christma,1
choic,4
déjà,5
lune,22
mic,1
attend,4
cur,1
puedo,1638
labio,415
piel,906
some,81
mes,50
demasiado,127
good,90
sweet,81
thunder,6
strength,7
listen,24
quarter,1
h,15
kein,6
band,10
upon,11
finest,2
price,1
aint,1
penetr,1
abyss,1
bird,15
place,65
verso,138
gran,222
comin,6
tall,10
essa,122
kiss,73
più,136
fals,4
coast,2
sam,8
nake,1
gon,1
it,1597
luz,844
mar,970
date,25
vos,321
lado,688
pare,231
known,9
whisper,13
drum,9
echo,67
nur,12
1,58
dig,3
hungri,1
spare,3
wise,4
defeat,1
class,2
pleasur,1
tattoo,1
chain,20
vuelto,113
deixa,122
hum,57
fun,34
ei,11
ela,265
experi,3
voit,3
glass,4
jah,4
pin,3
ticket,17
market,2
submit,1
queda,525
corazon,996
alway,109
ele,140
buena,277
ond,159
ninguém,122
ilusión,178
beyond,9
tuo,34
don`t,3
ano,60
fool,13
river,11
lock,13
lame,4
half,4
somehow,9
,2
ceil,1
i’m,1
sneak,1
trap,3
depend,34
quiera,677
paz,369
mujer,808
bar,166
sir,8
também,105
livin,6
sento,32
easi,28
younger,2
small,11
vara,3
veil,2
grasp,1
dune,1
smash,5
hour,3
gi,6
face,51
gent,852
with,414
girl,246
sia,30
ass,6
freak,6
rough,2
track,5
next,10
lonesom,2
losin,3
sich,2
welcom,8
fear,5
excus,4
playin,6
suert,309
gay,10
idea,74
nome,59
pens,56
over,83
hip,10
pal,48
high,38
reviv,9
thigh,1
donc,18
sister,20
vocal,1
paint,3
figur,6
isol,6
glanc,3
toda,911
chico,119
em,592
busco,324
darl,90
están,221
volta,70
excit,4
coffe,4
alguém,95
curtain,2
terra,130
song,62
c,78
dire,44
walk,64
room,19
ici,2
unter,2
poet,1
sixteen,7
wick,5
siempr,2319
mí,853
correr,98
into,63
warm,7
garden,7
pipe,1
defin,1
church,1
predict,1
jade,1
contr,2
know,632
ya,4706
termin,31
z,13
dijo,173
negro,281
hijo,189
repeat,29
becom,8
guid,6
sum,1
crime,4
best,36
fo,6
gen,1
harmoni,1
express,8
terr,3
rot,1
cuanto,252
yes,70
fiesta,237
allá,207
tras,225
suelo,190
lucif,5
nem,242
sorriso,47
gold,7
glow,2
mountain,7
explain,9
ground,19
comm,11
till,16
yang,7
dass,3
colour,3
chair,2
climb,5
thinkin,2
realiti,3
spider,2
mighti,3
in,1145
hombr,487
back,126
magazin,1
stack,1
makin,5
selfish,4
gettin,6
blood,16
alright,16
armi,4
owe,8
easili,5
slowli,6
serpent,4
wife,3
pein,6
couch,1
bay,12
einfach,1
tea,3
await,1
reput,1
lust,1
espejo,168
red,55
mina,39
leva,84
makeup,2
invad,20
tri,132
odd,1
vie,10
lit,2
dich,6
ki,163
brauch,1
gangsta,1
doom,6
ayer,412
forma,366
je,110
despertar,236
4,39
cancer,1
anim,81
import,20
momma,2
west,2
compar,11
major,2
it’,7
manag,3
branch,1
chanson,1
quiero,4287
una,4953
assim,219
paura,11
rate,7
exist,235
jama,172
dancin,7
rio,131
bunch,1
auf,11
smile,34
complet,4
travel,3
movin,21
habe,7
ding,1
style,6
texa,2
homi,3
talkin,12
billi,8
birth,3
feu,2
stroll,1
pathet,1
très,3
concern,1
sentir,494
sombra,326
lleva,273
she,291
way,259
não,1569
down,206
live,181
mind,69
odio,107
haga,213
convers,4
stand,98
bare,56
petit,11
sind,3
flesh,2
axe,1
askin,2
evri,1
espera,244
stop,73
tudo,376
abandon,44
friendship,2
overflow,1
pour,19
bend,4
veux,13
aussi,4
yah,1
quil,8
sagen,1
ingent,1
spent,2
suicid,8
commit,2
ella,1298
rock,188
canción,302
dejo,233
adió,236
k,94
q,260
sublim,23
hotel,49
grave,11
liar,9
foss,43
uniform,12
season,5
longer,7
throne,5
shi,3
rein,5
wors,1
although,5
leaf,1
rapper,1
stick,2
how,182
use,43
spot,2
diablo,149
tenemo,77
brother,27
até,122
gas,13
restless,2
flower,6
liberti,1
motiv,4
mentr,9
reborn,1
deeper,2
leur,5
butter,1
ow,1
cent,2
momento,563
amanec,262
got,270
mo,10
dale,181
den,61
later,8
ooo,38
virgin,7
fair,7
moan,2
zombi,2
insan,6
eras,3
fame,3
request,3
bond,7
doch,15
soir,3
ol,5
truck,1
fold,1
man,172
teach,2
qué,887
right,173
dough,1
esperar,240
alto,148
ey,32
it´,18
fix,2
brave,1
dein,5
fuckin,7
photo,3
dun,23
demain,1
waitin,3
vibrat,3
lower,2
opportun,1
seem,32
wonder,36
alguna,258
spit,4
forget,58
cari,28
vera,180
x,37
ani,17
mani,39
instrument,16
rust,1
absolut,2
rumbl,2
divin,5
cock,1
human,3
strap,3
me,20463
todo,4049
saudad,94
loud,16
swept,1
share,19
robot,9
7,18
joe,12
also,5
dri,21
obvious,2
etc,6
warum,2
angst,1
addict,14
exact,4
birthday,1
mall,1
loin,1
alor,1
lo,8282
lágrima,145
muert,204
llega,219
dalla,18
pledg,1
kitchen,6
speak,15
une,33
until,37
forgot,5
york,32
outsid,6
comput,2
stupid,4
label,2
cop,10
singl,6
attract,1
calma,204
an,117
jamá,234
busca,235
color,368
ficar,105
nosotro,136
georg,1
24,7
disco,110
hole,4
freedom,16
motion,5
drunken,1
hammer,3
meinem,1
gun,9
untru,2
mark,8
cow,1
but,438
fue,1080
andar,255
agua,394
venir,84
outro,91
tom,20
join,17
sure,23
yeh,38
perchè,33
expect,4
nest,13
act,9
heel,2
gear,1
se,10518
noch,1869
re,25
piti,2
babe,25
revolv,19
dont,24
quello,46
av,1
niggaz,4
wort,1
weekend,4
hast,3
bleibt,1
curv,1
breast,1
ill,1
blaze,8
mil,534
hit,22
futuro,163
llego,145
dio,641
art,44
between,14
big,71
abov,19
lot,21
fors,36
constant,9
paranoia,14
fought,3
surfac,1
drunk,1
wast,3
aus,6
oft,2
shoulda,1
program,1
drain,1
dine,1
we,566
learn,22
aquella,154
veneno,118
control,129
conoc,141
seen,25
vert,439
love,976
limit,21
estaba,287
rosa,258
reason,42
judg,2
ancient,2
goodby,37
nerv,1
quest,15
grown,1
quand,5
snow,4
attitud,1
shall,5
quoi,1
daughter,3
the,2610
dentro,649
buen,168
china,12
ay,1228
per,284
mão,80
cool,21
school,4
broke,10
electr,1
auch,8
homm,4
sport,1
nut,3
fashion,4
toss,1
id,2
anywher,5
achiev,1
bike,1
necesito,387
trist,379
siento,1026
soy,2173
sol,1035
pierdo,164
ves,489
dee,3
free,73
had,71
são,108
languag,1
pon,33
twist,13
realis,6
seal,4
glück,2
don’t,9
jone,3
press,1
up,351
would,307
al,3732
duro,98
iba,152
sei,379
everi,106
sabor,249
cruel,119
suo,10
neon,7
handsom,2
feelin,7
sleep,13
dreamer,1
tale,4
weather,3
voix,2
or,103
ventana,233
is,997
dip,1
rap,40
fort,47
shake,39
race,7
yellow,1
woman,21
ist,19
guess,13
anytim,1
tini,2
mmm,4
heal,6
bein,2
sotto,13
onto,1
easier,4
satisfact,2
have,592
feel,356
habrá,149
contigo,990
historia,371
bodi,50
none,9
around,96
olvida,149
punto,122
guardo,81
sight,6
f,45
samba,162
low,32
stell,14
answer,6
forsak,2
sopra,18
swim,1
ich,49
tag,2
ecstasi,1
être,1
forth,3
scale,2
stomp,1
paradis,3
asshol,1
reign,1
deep,31
estoy,1687
mismo,505
ahora,1364
buscando,299
vision,7
touch,102
lon,8
soul,41
sto,35
vorrei,32
ahh,31
cuz,6
video,7
tension,6
short,3
geh,1
nuclear,4
whoa,9
dive,1
será,524
gana,450
as,451
candl,9
giorni,20
conclus,4
fade,14
shut,17
sono,84
deepest,2
enjoy,3
deck,1
lumièr,3
15,4
watchin,1
un,9584
bitch,7
día,995
open,27
bonito,96
dear,11
hoje,112
eye,143
sull,5
kinda,8
mc,8
skin,21
thrown,4
danger,22
avoid,2
gern,1
patient,3
indian,1
code,2
need,292
laugh,19
minha,330
dei,45
bene,25
deceiv,4
bad,48
cheat,1
então,76
law,2
steadi,6
ran,9
job,3
lieb,2
mere,4
encor,2
awar,1
noel,2
focus,1
boot,1
eve,1
gusta,506
blast,1
pie,358
fiel,126
rey,115
nube,150
pile,1
seus,84
tonight,77
coup,3
domin,6
mistak,6
vite,2
possess,3
which,3
middl,9
begin,9
tame,2
hung,1
american,4
disast,1
buddi,1
más,2444
primavera,116
okay,18
dije,131
somo,334
heard,35
penso,54
vento,76
sell,4
cream,1
burn,30
memphi,1
cap,2
peut,2
wirklich,1
merri,2
flew,1
del,3225
produc,13
said,63
refrain,28
neck,4
damour,3
ii,12
abus,5
drew,1
america,5
fli,32
ordinari,1
trumpet,1
knive,1
raison,4
look,148
tener,310
você,781
já,264
complic,8
isso,93
follow,20
nothin,6
dir,9
march,5
hoo,1
pimp,10
feast,1
vraiment,4
panic,2
abl,6
atrá,170
dinero,199
um,1070
illumin,2
media,118
padr,133
viver,126
again,123
dinner,1
loos,6
wound,2
everlast,8
y,24634
conmigo,656
broken,20
here,153
crowd,10
tranc,4
woke,4
où,16
ein,13
groov,14
glimps,1
ander,2
disappear,5
champion,3
oclock,1
gambl,1
sound,23
les,272
hora,495
son,1024
pretend,61
vou,379
vamo,539
familiar,15
pide,172
vine,30
promis,39
prize,3
ar,44
bye,96
moral,18
revel,6
seed,5
tap,1
noir,4
breakin,1
passag,1
time,286
como,5339
eterno,183
blame,19
drift,5
shade,2
grass,6
rain,17
drag,9
ooooh,18
girlfriend,1
dial,3
ridin,4
dimens,3
nessuno,17
order,1
zone,1
espero,249
pra,867
tard,447
pueden,131
caus,210
ve,213
ma,444
befor,75
cannot,9
corr,139
empieza,85
readi,41
most,12
aaah,13
whip,1
bear,5
sand,5
eager,2
vega,3
don,85
cant,54
prend,42
mentira,404
hear,65
decis,15
kan,41
medo,182
à,108
ask,29
lontano,15
felt,27
elvi,11
entir,1
messag,3
divid,9
ain,1
stitch,2
gang,3
perhap,5
consid,1
number,11
lili,1
unless,1
summertim,1
romant,1
watch,46
matar,176
ao,233
mía,251
caught,1
vien,380
ne,95
pedir,140
error,154
robe,11
myself,37
everyon,9
combat,7
woh,4
fill,15
haunt,1
plain,4
bobbi,3
glide,1
spill,1
fortun,1
yell,1
sympathi,1
oye,184
era,857
ce,75
than,47
should,87
hell,19
pari,16
può,21
der,39
coisa,124
ton,22
ll,50
hiphop,8
enfant,3
fault,4
bump,1
island,2
torn,1
shower,3
vez,2010
feliz,694
ojo,977
from,170
s,363
hago,237
pasado,331
far,57
foto,97
num,103
coz,11
year,49
affect,2
wild,19
quella,12
feet,18
deg,7
fallen,2
voll,2
peux,5
vient,5
alien,10
bu,8
por,8178
sea,546
pelo,253
canta,134
done,41
os,346
goe,32
screw,2
cha,30
afternoon,9
player,4
tiger,4
jeden,2
pill,3
meet,5
deje,376
niña,256
faith,14
vent,59
carri,9
wow,13
lifetim,5
accus,2
foolish,4
golden,6
lay,15
jahr,1
sag,1
sonn,1
plenti,2
colleg,1
drip,1
out,197
ama,202
mirando,141
bonita,129
entend,248
mare,128
cruz,92
ideal,45
king,37
christian,15
nine,6
age,10
young,30
brazo,300
con,5775
lluvia,211
amo,399
llegar,287
chick,8
junto,612
sempr,214
qual,37
surrend,14
avant,5
money,91
soar,28
surviv,3
bag,3
explos,1
closer,10
vielleicht,3
hab,6
connect,4
arrow,2
spoke,4
dautr,1
juic,1
pleas,81
day,140
allí,130
afraid,26
corner,5
cest,22
hopin,2
routin,2
uhh,23
aprè,1
jail,4
rearrang,1
vom,2
clean,8
asid,2
mend,3
de,26733
tu,12257
salir,238
pena,604
turn,85
fell,19
adentro,132
misma,178
prove,5
sonho,88
even,66
perd,19
ainda,104
sex,20
list,2
doubt,20
dat,3
monkey,9
lui,26
aah,31
base,16
saniti,2
klein,1
skip,1
grind,8
nunca,1727
ser,2190
d,215
chorus,99
contar,120
quer,150
beau,3
oooo,2
third,1
below,1
bow,6
clap,2
wire,2
gaze,2
devil,2
spoon,1
attent,6
slight,1
tiempo,1670
sentiment,15
blunt,1
locura,241
sangr,343
behind,12
street,17
milk,3
those,37
public,1
usa,20
explod,6
flavor,6
quick,4
dimmi,12
height,1
laiss,2
sidewalk,2
drinkin,1
lean,9
name,44
flore,251
só,434
futur,11
god,25
wherev,10
tour,5
princ,5
discov,1
nu,29
occhi,43
movi,6
whirl,1
mientra,419
suav,139
hoe,3
bet,10
beneath,9
secur,7
tape,1
rest,20
zero,2
joue,1
sigh,2
sensat,4
bullshit,2
astray,1
ont,5
sober,1
diseas,1
check,2
sueño,907
everyday,7
agora,142
malo,204
llena,266
di,865
block,6
flip,1
crazi,44
thank,7
smooth,3
jo,4
tuoi,28
weapon,1
front,17
wrist,1
fri,2
voglio,38
empezar,198
realli,122
tra,65
mail,2
mother,19
bone,4
hate,26
effort,1
bei,2
spi,8
stab,2
sorrow,3
leader,1
misti,2
combin,2
lookin,1
just,373
long,192
fragil,15
parar,239
saben,157
qued,165
mental,22
sai,107
religion,17
film,25
peac,8
east,2
sudden,7
father,9
comment,3
idiot,1
highway,12
vida,3433
creer,217
minuto,124
bang,23
nena,264
bom,156
tuyo,230
perder,385
anda,170
hier,31
univers,21
hill,1
realiz,10
4x,17
pro,123
aye,6
fact,3
tender,14
vampir,2
suppos,7
weiß,2
drivin,3
model,5
joli,3
tête,1
sun,59
quizá,161
ali,39
fim,84
win,10
histoir,10
lou,5
useless,1
death,7
jungl,1
fil,3
distanc,5
kneel,1
highest,1
elev,1
soñar,196
entr,1081
fish,7
uno,526
real,159
playa,116
viva,173
cree,136
yourself,57
eagl,1
linger,3
gave,31
cose,15
plus,26
knee,8
wisdom,2
sagt,2
mer,1
cash,2
corpor,1
joint,6
ha,1129
diferent,112
whi,585
quando,363
coraz,34
venus,10
zu,19
sa,85
donna,37
screamin,1
toy,10
und,38
lala,20
vide,8
captain,1
troi,7
now,270
deja,594
mire,93
céu,102
morn,23
cambiar,206
sait,1
invit,7
safe,7
truli,2
sexi,83
satisfi,1
confess,1
gather,4
credit,2
hay,2673
v,29
perfum,92
against,10
entonc,151
word,64
mont,46
debe,168
prayer,9
weav,4
tutti,36
studi,1
kill,27
defend,17
40,6
viel,5
sole,30
dedic,1
bother,5
dirt,2
palm,2
moonlight,3
hater,4
beast,1
wore,1
and,1516
la,19161
silencio,467
amart,310
sit,33
ust,138
hacia,306
ur,11
fall,126
gimm,3
sens,8
wish,71
oo,24
fi,8
yet,14
nor,1
faster,1
rebel,1
sin,3996
debo,145
tengo,1873
olvidart,207
must,34
first,34
contra,258
intent,49
imagin,65
went,15
pain,43
war,16
cloud,9
purpl,2
hunt,1
ghost,5
jealousi,1
ref,2
bam,4
fifteen,5
hollywood,1
question,16
ese,737
aun,249
blind,11
ok,44
still,77
mesmo,99
stare,13
true,54
drama,15
thief,1
ohh,96
esser,17
balanc,6
box,13
hart,3
rotten,1
content,11
sarà,20
string,3
born,15
lion,1
cadillac,1
hem,1
guest,1
peel,1
quier,1227
tien,1536
cada,1325
ever,81
pave,1
ca,274
dura,70
bajo,281
wreck,7
b,16
pocket,2
crystal,1
dawn,12
cett,5
roof,3
creat,5
atom,1
chamber,1
destin,7
innoc,8
vill,2
dond,1528
rumor,41
beat,40
left,30
late,79
confus,11
head,33
jour,21
endless,3
civil,3
clever,1
vain,1
emerg,1
solut,2
solitud,2
mis,1973
resist,26
blue,83
quis,196
side,50
reach,33
rum,14
adesso,38
bob,9
slap,2
bed,11
outer,1
mein,15
laughter,6
seat,7
vu,1
stream,1
compass,1
lamb,3
i,4535
was,261
barrio,194
recuerdo,630
cosa,855
herida,314
duel,365
gain,1
il,340
senza,85
prepar,13
gift,4
bat,12
ô,133
charli,19
8,16
sad,26
ascend,2
deal,7
glove,1
wo,109
respect,4
tenert,212
linda,135
días,212
wide,8
powder,1
root,7
werd,1
awak,4
daß,2
aim,1
rue,1
do,1970
caminar,140
mirar,311
ahí,225
foi,178
mucha,210
habla,136
primera,138
bailando,134
outra,62
fight,37
destroy,4
sui,28
miei,34
shout,5
dis,11
arriv,4
smell,8
wheel,1
suppli,1
sucker,9
featur,2
despair,3
burnin,2
sent,28
ver,1332
beso,1157
aún,219
solament,161
calm,8
tire,27
understand,48
pierc,1
brown,14
settl,1
capit,13
grab,7
materi,21
ive,3
drug,9
wine,6
missin,2
bras,5
warmth,3
vein,1
hug,1
life,195
é,1382
cure,18
boca,503
hecho,262
aprend,141
mayb,64
visto,173
guard,20
ogni,61
mort,37
ses,5
appeal,2
plane,25
note,12
pum,100
stolen,3
li,19
demon,9
cmon,19
fate,3
niemal,1
convinc,1
exit,4
burnt,2
polit,1
green,2
mami,182
vita,97
blanca,103
cristal,101
take,255
gritar,158
x4,30
haut,1
dom,27
recal,5
ago,6
privat,2
poor,5
silver,22
dum,1
ear,2
finger,5
slept,1
tree,12
impos,119
huh,12
lake,1
translat,3
us,85
lost,38
anymor,21
while,25
compani,1
doy,296
rien,9
ring,46
100,32
damag,2
rocknrol,11
machin,15
stuck,2
begun,5
everytim,4
betray,5
hardcor,2
muero,367
nadi,1122
new,86
fuck,20
speed,9
canto,342
madr,245
quieren,194
melhor,86
troppo,17
were,105
spring,25
dal,22
dare,42
pen,5
somethin,9
decad,1
whose,10
jewel,1
humbl,1
to,2042
vas,1033
m,221
trace,3
mucho,658
amant,118
favor,334
vai,503
nei,12
four,3
hero,27
tue,8
lick,2
workin,1
snap,2
feather,1
stock,1
premier,4
headlight,1
stage,1
friday,3
night,238
mirada,420
mia,318
this,363
pop,11
papa,80
chang,48
i´m,15
ador,34
curs,2
standard,1
am,682
en,13731
ni,1768
llevar,134
han,396
talk,40
damn,7
foreign,1
esa,760
acabar,129
arriba,172
worri,8
sky,41
fazer,100
sinto,63
vuol,15
cling,6
pouco,41
miser,15
zoo,6
seul,4
dieser,1
dabei,1
savoir,1
mann,1
doubl,1
él,252
tight,16
christ,5
abr,162
bueno,327
ride,45
leer,17
yeux,11
master,23
both,34
deserv,5
mich,10
superman,7
scare,12
autr,2
wax,1
appear,2
trade,2
test,3
digo,464
sobr,437
estrella,397
niño,255
mata,126
pensamiento,132
rendezv,3
maker,2
precious,5
tai,11
sheet,1
nos,1636
g,101
pasión,196
origin,25
resto,76
auto,27
borrow,3
ciel,8
dêtre,3
im,37
beaten,1
cat,16
thru,6
sooth,1
tell,165
solo,2335
le,2021
nasti,7
stress,2
ed,20
meant,23
luce,107
today,41
croi,2
brain,10
bon,17
phone,10
halo,5
besid,8
observ,2
gore,1
jai,12
tough,8
sacr,1
jimmi,1
leau,2
male,113
nott,45
pobr,239
p,26
without,82
pose,77
etern,9
keepin,2
egg,2
letzt,1
ought,6
hang,9
beep,6
heartbeat,3
tower,4
alegria,157
make,306
save,41
sou,237
pas,91
nice,38
silent,4
ami,26
foul,4
depui,2
dull,1
path,2
weil,2
tryin,17
possibl,1
honesti,1
questa,94
lamor,48
gracia,196
voce,82
loser,12
sort,23
union,6
holi,2
shock,3
sil,3
shes,4
toe,3
week,1
aliv,28
er,8
shop,3
crush,1
ash,5
bottom,3
basement,1
rainbow,2
oh,1722
pull,9
doin,11
maria,105
revolut,7
mon,19
ba,7
berlin,3
strike,1
unfold,2
unspoken,2
sigo,350
sólo,885
pueda,321
if,355
bless,25
dream,133
casi,189
sen,5
diga,345
dove,69
invis,39
delight,7
forev,42
dj,15
legal,31
often,4
fuori,25
lisa,8
five,13
raini,1
peter,3
countri,4
luci,3
tar,1
acid,2
besoin,2
michael,1
algo,929
bailar,305
nuestro,534
frío,135
teacher,2
wanna,262
david,10
nobodi,56
warn,10
femm,5
était,3
tragedi,15
amigo,581
repres,42
flame,3
pu,6
papel,165
rush,13
via,95
fare,28
santa,41
intro,23
mile,52
matin,3
noon,5
plant,4
visit,4
post,7
club,48
pack,5
taxi,20
journey,3
tun,15
underground,4
soleil,6
wood,21
quun,4
stair,3
bonheur,2
mm,3
sever,1
what,451
querert,186
seguir,371
llevo,298
esto,595
cabeza,312
station,8
children,6
quell,5
wonderin,2
pattern,2
whistl,1
lamp,1
si,6849
ti,4157
así,914
dan,176
guitarra,149
placer,156
pan,86
ala,190
muev,300
care,42
els,26
hospit,12
offer,2
gone,40
della,32
search,15
motor,21
choos,6
given,9
worthi,4
float,4
tabl,4
your,808
say,257
sient,347
miro,208
cama,239
deseo,400
libertad,242
frent,259
har,8
after,22
porta,43
enter,16
bring,36
ad,34
ces,12
u,31
top,27
tone,2
cloth,7
illus,14
gleich,2
junki,1
sat,1
grew,2
web,3
blew,1
roller,1
coward,4
sal,134
esquina,139
nuevo,464
hot,18
pudiera,116
sido,227
togeth,34
bop,3
sogno,25
tear,40
autumn,2
mach,4
ganz,3
bank,2
justifi,1
razón,312
three,15
uh,136
ball,5
game,50
vivo,457
town,26
ritual,16
wird,4
oblivion,1
bite,4
challeng,1
dad,2
infin,1
ambit,1
eh,408
tempo,271
fa,54
sera,399
hei,18
parti,58
pure,8
someth,46
wenn,6
sexual,22
puzzl,1
higher,16
may,32
unkind,1
revers,1
retir,10
valentin,9
emot,5
page,2
sign,27
escapar,153
acaba,179
importa,399
onc,36
boom,15
line,21
confin,7
w,2
depress,3
ell,9
werden,1
sang,10
defens,1
siren,1
cryin,1
boogi,17
like,466
viento,469
nigga,20
point,8
fino,52
problema,145
lei,80
either,2
sogni,19
desert,5
somebodi,16
ohhhh,20
mood,3
amour,16
ob,3
waist,4
sold,1
a,20002
sing,62
vece,537
bem,232
cuerpo,901
thing,165
spray,3
pude,150
ye,55
forgotten,8
oi,24
clear,13
record,16
admir,4
rider,8
favorit,4
tank,2
grey,3
has,717
decid,59
fondo,151
libr,237
altar,31
think,198
thang,1
toward,2
instead,5
ora,34
hmm,4
lotta,2
write,8
whether,1
poni,1
bloom,2
jet,3
welt,2
heut,1
boat,1
stood,2
wet,9
rather,1
run,120
ter,169
yeah,361
chica,241
meno,419
separ,30
gotten,3
million,25
reject,2
help,34
spread,1
support,3
rail,1
obsess,5
rage,2
scarlet,1
spiritu,2
puttin,1
well,75
crimin,12
tú,1841
puro,92
juego,264
tv,21
lone,54
cantar,294
piss,1
mr,8
tin,15
destini,5
bitt,1
frei,2
schwer,1
aux,1
societi,1
forti,3
feed,3
loco,463
give,255
danc,174
igual,647
gloria,69
dormir,188
hors,4
merci,4
ship,3
sul,29
puoi,15
hall,9
jame,11
ez,14
insiem,30
beef,3
fat,3
kid,7
circumst,1
din,10
sail,4
georgia,1
el,17362
sé,841
na,874
aqu,80
olvidar,535
swing,41
cor,37
año,282
llorar,466
estou,105
basta,177
jamaica,13
noi,97
trust,31
palac,2
saint,8
swell,1
sehr,2
heur,2
mmmm,2
storm,5
negat,1
let,294
llorando,200
ahi,138
secreto,143
dark,37
funk,12
ana,26
komm,2
pillow,5
mir,27
sane,1
prendr,1
mieux,1
medicin,2
fountain,1
porqu,2439
da,1568
extraño,194
alla,104
twice,5
shoot,7
him,46
truth,28
sest,3
battl,1
yea,27
skate,2
memori,7
pride,5
serious,4
eight,1
swallow,1
firm,23
cansado,121
ira,81
hold,109
fuego,530
close,40
cè,56
heaven,20
lord,9
&,24
12,8
boss,27
lang,3
bill,3
weißt,1
food,1
dag,1
timeless,2
led,1
verdad,706
tristeza,230
case,13
moon,55
giorno,36
holla,3
soft,14
melt,2
knock,3
schon,8
besser,8
fou,2
rout,1
shore,1
posit,1
joy,6
jugar,154
eu,1964
verd,154
juro,187
qualquer,76
ho,171
pretti,24
lua,61
inspir,14
po,70
jean,35
tô,102
ghetto,8
modern,4
form,8
mold,2
prison,2
teardrop,1
despu,153
nana,60
on,694
flor,272
encuentro,284
ando,108
hablar,357
despierto,107
sí,263
leg,4
spark,2
imposs,6
10,18
regga,33
view,3
remain,6
stuff,6
chrome,1
ihr,1
replac,5
buri,1
musiqu,4
mi,12209
risa,191
came,33
flow,51
cualquier,164
fora,47
kind,18
draw,2
due,30
anybodi,4
state,4
geht,3
sweat,6
velvet,4
bigger,1
avenu,2
droit,2
honest,2
witch,2
ere,1329
saber,639
volver,630
azul,307
casa,549
quién,248
dame,746
desd,531
guy,15
few,7
mamma,2
jamai,27
vivr,9
saw,35
fresh,12
impress,1
jetzt,5
villag,2
durch,1
kommt,2
scent,1
aris,1
poison,1
dos,1040
pone,235
one,386
did,50
tienen,167
decirt,191
dai,23
ciudad,354
move,70
eat,6
hat,3
more,201
though,31
bitter,6
bloodi,6
keiner,2
pair,1
peep,2
motherfuckin,2
written,3
creep,1
es,8574
cuando,2755
mundo,1448
lugar,576
morena,110
power,8
insist,11
stone,17
mexico,8
perch,25
là,25
callin,16
refus,1
duti,9
lane,1
squar,1
dizzi,3
be,759
que,39451
muy,810
want,377
ir,410
caso,102
río,158
fuist,244
sick,3
port,8
siamo,45
romanc,27
dell,20
ach,3
mous,1
aid,1
scatter,4
shelter,6
teeth,1
jacket,1
quien,1108
final,534
about,139
shit,20
madrugada,125
ormai,23
total,77
moment,28
summer,8
swift,1
somewher,14
cu,14
fire,49
handl,4
willi,3
sous,1
shed,2
piensa,181
aqui,735
preciso,65
posso,88
pasion,158
sos,89
chees,1
set,26
temperatur,2
land,10
einer,1
toma,161
vela,102
manera,221
yall,3
motherfuck,2
30,11
succeed,4
plate,3
knew,38
chaqu,5
count,12
strang,8
6,35
local,6
earn,1
their,29
nah,36
suit,1
seventeen,1
miracl,4
pasa,497
déjame,181
vino,152
gotta,64
dado,170
sue,70
también,248
boulevard,15
señor,133
già,30
vil,9
past,13
star,40
au,17
même,8
disgust,1
cafe,20
breath,31
butterfli,2
kopf,2
contempl,1
bell,46
driver,1
lesson,8
french,1
aunqu,940
sur,95
daddi,112
sometim,38
hide,33
reflect,4
metal,35
guilti,4
prefer,6
water,17
bibl,2
second,10
alter,2
selbst,1
funki,1
could,183
vivir,1099
mala,267
miedo,642
admit,4
weed,2
decir,423
mio,285
find,97
olhar,73
peopl,35
tomorrow,12
castl,4
vers,33
home,81
busi,6
scream,6
riot,1
london,2
actor,8
jazz,11
notic,2
object,5
older,2
mom,4
aw,1
dime,597
fe,171
them,38
ice,8
heart,208
bella,174
normal,85
troubl,14
lindo,116
som,44
seek,4
cave,1
dragon,16
whole,24
twenti,8
immer,4
bliss,1
superstar,2
opinion,6
torment,3
are,709
call,553
hizo,163
enamorado,186
rais,58
facil,115
comprend,130
chill,2
nient,48
ça,15
doe,38
font,17
engin,1
bride,2
anticip,3
peu,3
held,2
charm,2
darlin,3
that,954
amar,724
esperando,247
entrar,134
palabra,555
thought,56
other,65
ello,166
go,393
horror,8
everybodi,46
sta,14
introduc,1
ang,4
nen,1
flown,1
bout,13
bleed,5
remedi,1
yo,8424
funer,11
bis,211
querer,505
been,120
screen,7
santo,67
meu,759
cae,104
vuela,172
van,411
otro,794
come,605
lead,27
get,305
culpa,163
poi,152
ess,117
teu,157
ska,20
polic,4
prima,32
certain,3
album,19
ole,34
partner,2
cloudi,3
snake,1
teas,1
caricia,226
smoke,9
entiendo,123
alguien,387
english,4
grito,145
mío,120
tutto,58
sweetest,2
dyin,2
mie,15
sting,1
stalk,1
fest,1
jukebox,1
energi,2
common,2
mornin,1
will,593
made,41
crew,7
bounc,4
hace,1156
shame,4
tierra,428
nombr,274
ritmo,201
qu,145
musica,106
serv,13
store,3
two,43
six,2
trip,8
honey,43
drink,14
steal,3
cook,1
notr,4
sack,1
wed,1
edg,1
liber,30
sentimiento,240
wake,17
tenho,137
mari,13
fatto,27
lalala,49
worship,14
nie,3
cours,6
tick,3
microphon,1
everyth,95
anch,91
alreadi,6
dead,6
core,30
cd,4
nowher,8
dollar,3
bi,3
pourquoi,4
cheap,1
cell,2
fella,1
angel,95
ai,129
cuenta,411
tua,118
perdida,117
flight,2
cuor,40
quon,4
mad,13
bla,13
wrap,4
thread,3
orlean,3
strain,1
shell,4
rescu,3
nada,2354
blade,2
ruido,77
morir,446
hard,33
inform,4
grand,291
virus,6
ohhh,58
anni,22
tango,21
ett,4
smack,1
regard,6
pine,1
captur,5
signal,1
hop,4
mist,1
bald,3
amiga,173
slip,8
by,139
twilight,2
letter,7
alibi,8
ignor,22
haben,8
voic,20
meat,1
goddamn,2
hippi,2
bomb,10
action,2
smart,1
toast,6
limb,5
gin,4
there,303
of,624
parec,277
piedra,99
creo,324
doi,70
ocean,11
ahead,11
rose,21
domani,22
rua,59
nach,6
haze,1
surpris,6
flash,7
usual,1
stole,1
corp,1
sanctuari,1
whatcha,1
butcher,1
magic,24
das,410
mai,645
luego,227
non,637
passo,38
lose,30
corpo,77
silenc,11
clone,3
knowin,1
scienc,1
quelqu,4
tut,1
spanish,8
patienc,14
beach,2
tennesse,2
degre,1
vacat,1
r,15
che,752
book,7
apart,40
self,13
chip,2
seven,1
weak,11
hin,1
temp,5
gibt,3
macht,1
clock,4
rêves,2
anger,1
co,5
forward,3
fin,507
despierta,97
perdido,374
sed,106
qui,179
2x,92
old,44
nose,14
spin,8
ladi,19
paus,5
piu,16
jenni,1
bum,9
sacrific,3
wave,5
level,5
ben,6
itself,4
bara,1
nervous,2
alarm,1
concret,1
boyfriend,2
pienso,332
sufrir,247
mejor,843
dick,1
quedan,125
sale,212
sorri,30
read,25
wing,10
intens,5
thee,2
conscienc,1
sont,12
industri,2
mister,1
then,64
beauti,43
such,18
lejo,440
hermano,118
coro,733
buscar,210
tí,190
par,116
die,53
ooh,141
mouth,10
rob,2
understood,1
breez,4
denn,2
clay,2
tas,6
shield,1
va,1556
never,252
much,72
tuve,124
mean,46
suffoc,2
du,30
less,6
20,22
banana,18
champagn,6
servic,3
show,69
llora,198
see,262
roll,105
ant,539
carnav,93
bush,4
pronto,218
our,92
thousand,12
hi,12
door,30
disconnect,2
punk,3
einen,3
bo,3
pit,2
souvenir,2
sweeter,1
esta,3250
pero,2635
can,364
ke,198
vale,251
fuert,237
volar,339
estribillo,183
last,67
ave,59
sunni,8
hunger,1
tellin,6
swear,11
indiffer,1
chest,4
für,4
paul,3
buy,6
sweep,1
ourselv,1
vow,1
chin,1
vuelva,232
nao,76
cover,4
yesterday,6
chose,7
mate,20
shine,40
sha,13
sehen,1
etwa,3
seit,1
jede,1
mike,1
center,1
fore,1
há,120
pasar,327
tal,378
insid,88
adio,205
creatur,7
earli,3
nacht,6
fit,3
struggl,19
denial,3
ko,10
sayin,18
fearless,1
whenev,10
awaken,1
coupl,2
away,234
great,8
bit,13
vuelv,495
olvid,169
oscuridad,167
x2,133
mañana,547
gonna,209
cri,80
chanc,45
fácil,141
card,5
wit,3
knife,1
lover,22
franc,3
friend,50
terribl,13
among,3
south,7
kingdom,4
morgen,2
trembl,1
lipstick,1
crash,4
stir,1
situat,8
collar,10
reaction,2
viejo,195
veo,391
motivo,113
sua,184
descend,2
crawl,6
comfort,6
9,24
lucki,6
treat,2
command,1
fucker,1
trop,5
practic,1
eso,1128
alon,71
crown,5
olvido,387
anyon,8
ego,25
j,21
lai,60
pictur,2
scratch,5
stronger,6
pluie,3
cast,1
thrill,6
brighter,2
pot,2
transform,2
grace,1
squeez,1
jaurai,2
pecho,161
cariño,282
nosso,102
dress,14
fast,22
vuoi,53
tous,7
minut,9
kann,9
kissin,2
extrem,1
eas,5
cantando,181
mal,787
t,224
ja,178
meus,104
felicidad,195
jesus,48
quanto,80
keep,159
ate,7
lie,71
africa,18
lyric,32
rat,2
full,16
drop,8
gentl,5
jung,1
sunlight,1
anchor,4
harm,1
juli,1
donn,1
vuelta,192
dem,11
vive,282
shadow,8
fuera,379
mine,66
leve,62
won,2
hello,16
ta,87
lhe,66
mot,4
wont,3
fra,18
passé,1
confront,1
toni,1
not,1495
habit,3
put,56
earth,10
nas,61
general,11
depoi,111
strong,44
recogn,2
choke,3
under,15
wipe,3
attack,4
lift,18
babylon,5
mehr,5
coeur,5
threaten,1
throat,2
awhil,1
surf,2
shiver,1
they,213
sabe,1220
sip,2
group,1
gris,113
trash,3
algún,160
bound,2
sonrisa,284
rise,16
vete,114
took,11
folk,2
sunshin,3
qua,12
fan,24
drown,5
raus,1
relax,6
cut,3
contain,1
te,13795
llama,227
arena,152
cancion,233
wear,9
leap,1
passa,84
lightn,2
terror,18
zeit,4
zurück,1
winner,2
woah,3
ruin,4
nai,1
duck,1
politician,1
poco,767
john,8
negra,161
vaya,368
met,17
hous,44
nós,64
beg,5
joke,5
embrac,12
critic,1
vor,1
faut,6
taught,3
bread,2
built,3
actual,1
frozen,1
jealous,1
present,112
logic,1
e,3001
aquí,834
sus,717
hope,44
littl,112
honor,48
pane,4
crack,11
tide,1
heavi,22
zwei,1
runaway,7
careless,3
mano,896
demai,55
circl,5
stori,25
receiv,5
stay,56
bus,12
queria,108
devot,7
tout,25
lip,25
mississippi,4
vaniti,1
interest,1
phase,2
lack,1
row,6
moin,1
razon,241
cara,507
bien,1318
across,4
rosi,1
altro,16
voltar,61
tão,195
super,26
continu,5
jack,28
demand,7
sie,7
mill,9
tot,6
freeway,1
blow,7
psycho,2
for,621
absurd,3
dejar,227
dolor,805
infierno,139
quem,381
instant,163
seu,322
ness,63
boy,71
differ,9
might,21
someon,87
team,5
rub,4
straight,8
marri,33
saturday,2
meiner,1
belli,1
enemi,1
world,125
too,118
las,3803
loca,161
sigu,414
asi,670
hand,75
perro,114
tocar,129
magia,98
cerca,306
road,24
hai,35
dr,3
flood,1
shirt,1
men,29
dong,1
rubi,4
fond,2
holiday,4
su,2326
cielo,1009
dá,108
desir,11
radio,54
quel,33
muer,179
sere,72
near,20
pass,26
oooh,20
i`m,11
così,61
slide,6
least,6
singin,4
fake,10
plein,2
lazi,2
load,3
board,3
saa,2
hasta,1259
nuestra,272
esperanza,210
sem,321
mondo,57
è,235
lamour,14
dirti,6
brake,1
fingertip,3
border,2
tie,5
amaz,9
yearn,2
mash,1
all,759
pensar,453
air,572
these,30
medio,157
ancora,78
throw,26
questo,61
heartach,4
darken,2
perdu,2
slam,1
tellement,2
chicago,2
tanto,1232
quero,329
valor,145
l,73
poder,434
cos,22
brought,3
rememb,26
soon,28
compromis,2
off,56
told,31
spend,16
guitar,12
steam,1
rocket,1
sow,1
trick,4
rude,2
rid,4
voy,2115
ah,427
ley,81
coração,154
pueblo,115
luck,3
you´r,6
rug,1
volt,27
fantasi,11
whom,1
ner,1
return,7
doorway,1
howl,1
at,143
luna,627
io,199
nois,2
pace,17
mit,7
imma,1
blister,1
carol,1
twelv,1
relat,1
mama,103
lee,9
aquello,118
fuerza,239
esté,152
aquel,293
quedo,223
fail,7
anoth,45
senti,83
passion,16
strip,2
reveal,1
cotton,2
deux,3
thorn,1
forc,1
para,5020
tenga,194
car,17
tem,371
deus,127
segundo,119
recordar,126
cold,17
round,26
bright,13
3x,24
proud,4
disguis,1
news,11
tail,1
sein,2
greatest,5
lovin,2
deni,15
soil,2
haus,2
direct,1
june,2
adventur,1
voir,2
sleepin,1
no,24210
falta,502
her,157
paso,454
2,142
bord,36
black,21
hurri,7
sooner,1
golp,82
work,20
wrong,40
repent,104
3,60
melodi,8
tast,24
dust,8
stai,11
jam,10
simpli,1
roar,1
pink,5
numb,1
finish,1
mas,3182
olho,139
probabl,3
toca,158
invent,11
sola,397
end,63
hesit,11
brutal,6
dizer,124
cuatro,100
diss,43
bonni,4
nella,31
window,14
moi,30
sangu,26
train,28
obey,1
can’t,4
despué,244
type,3
ment,365
¿qué,132
san,57
partir,102
doctor,41
happi,33
music,69
grow,9
his,56
bail,96
person,10
chao,4
dit,7
england,1
skirt,1
erst,2
hollow,1
bubbl,2
50,1
amor,6843
nueva,198
tambien,180
estamo,182
noit,128
escond,137
voi,35
chosen,4
leather,1
veri,32
cowboy,4
park,5
goin,9
klar,3
kick,4
parl,1
dedo,101
catch,8
dog,12
nossa,68
lá,214
dude,24
tá,119
ten,89
spell,5
except,9
special,6
mirror,6
shorti,31
ra,106
freez,3
seh,1
aura,2
shoe,4
gefühl,1
suffer,2
tha,6
where,121
cambia,124
televis,13
ahhh,12
everywher,14
piano,30
cross,10
gira,75
col,20
sim,61
bee,5
threw,4
describ,2
generat,2
weiter,1
mix,4
o,3686
light,78
mim,277
don´t,15
women,1
sinc,23
soi,10
underneath,2
nom,5
grant,6
accept,7
hoy,1819
soledad,512
est,1675
tres,166
heat,6
click,7
calor,450
hacen,181
cuento,216
whatev,12
difícil,105
rent,3
dure,16
perché,47
pick,14
north,1
pay,10
bullet,3
despit,1
fait,2
gate,7
shoulder,2
13,7
toi,6
tanta,505
better,72
guarda,81
perfect,23
wind,28
role,6
bottl,1
enough,56
unit,3
hail,4
key,8
hood,14
protect,3
ohn,1
rape,1
tan,1660
vi,396
anyway,4
through,117
dónde,166
modo,61
phrase,3
especi,113
advic,3
gut,5
olla,3
és,38
lace,2
happen,17
nicht,29
lil,7
arm,31
problem,6
loneli,5
declar,2
respons,7
cum,5
dicen,308
dulc,242
encontrar,327
cómo,234
same,45
escucha,137
scene,11
consum,36
jump,22
mulher,103
belong,19
bridg,6
regret,10
pui,2
cultur,5
wir,10
southern,1
über,1
lair,5
satan,1
cherish,34
johnni,2
